{
  "AWSTemplateFormatVersion": "2010-09-09",
  "Description": "EventBridge rule resource stack creation using Amplify CLI",
  "Parameters": {
    "env": {
      "Type": "String"
    },
    "functionExecutionsPollerArn": {
      "Type": "String",
      "Default": "functionExecutionsPollerArn"
    },
    "functionTrumpTweetsPollerArn": {
      "Type": "String",
      "Default": "functionTrumpTweetsPollersArn"
    }
  },
  "Conditions": {
    "ShouldNotCreateEnvResources": {
      "Fn::Equals": [
        {
          "Ref": "env"
        },
        "NONE"
      ]
    }
  },
  "Resources": {
    "Rule": {
      "Type": "AWS::Events::Rule",
      "Properties": {
        "ScheduleExpression": "rate(1 minute)",
        "Targets": [
          {
            "Arn": {"Ref": "functionExecutionsPollerArn"}, "Id": "ExecutionsPoller"
          },
          {
            "Arn": {"Ref": "functionTrumpTweetsPollerArn"}, "Id": "TrumpTweetsPoller"
          }
        ]
      }
    },
    "PermissionInvokeExecutionsPollerFunction": {
      "Type": "AWS::Lambda::Permission",
      "Properties": {
        "Action": "lambda:InvokeFunction",
        "FunctionName": {"Ref": "functionExecutionsPollerArn"},
        "Principal": "events.amazonaws.com"
      }
    },
    "PermissionInvokeTrumpTweetsPollerFunction": {
      "Type": "AWS::Lambda::Permission",
      "Properties": {
        "Action": "lambda:InvokeFunction",
        "FunctionName": {"Ref": "functionTrumpTweetsPollerArn"},
        "Principal": "events.amazonaws.com"
      }
    }
  },
  "Outputs": {
    "Name": {
      "Value": {
        "Ref": "Rule"
      }
    },
    "Arn": {
      "Value": {
        "Fn::GetAtt": [
          "Rule",
          "Arn"
        ]
      }
    },
    "Region": {
      "Value": {
        "Ref": "AWS::Region"
      }
    }
  }
}